<svg width="512" height="512" viewBox="0 0 512 512" fill="none" xmlns="http://www.w3.org/2000/svg">
<g clip-path="url(#clip0_1409_247)">
<path d="M112.594 272.239L368.806 505.726C377.214 514.091 390.849 514.091 399.257 505.726C407.664 497.362 407.664 483.79 399.257 475.425L158.493 256L399.236 36.5748C407.643 28.2099 407.643 14.6379 399.236 6.27368C390.828 -2.09058 377.193 -2.09058 368.786 6.27368L112.573 239.761C108.092 244.22 106.17 250.132 106.47 255.978C106.191 261.847 108.112 267.758 112.594 272.239Z" fill="black"/>
</g>
<defs>
<clipPath id="clip0_1409_247">
<rect width="512" height="512" fill="white" transform="translate(512 512) rotate(-180)"/>
</clipPath>
</defs>
</svg>
